dianchi.png
size:980,815
filter:Linear,Linear
pma:true
dianchi
bounds:429,130,138,300
dl2_00009
bounds:2,379,425,224
offsets:58,20,512,255
dl2_00010
bounds:2,605,485,208
offsets:16,26,512,255
dl2_00011
bounds:904,746,67,67
offsets:21,76,512,255
dl2_00012
bounds:489,432,462,190
offsets:30,44,512,255
dl2_00013
bounds:2,225,420,152
offsets:50,71,512,255
dl2_00014
bounds:904,691,54,53
offsets:352,164,512,255
dl2_00015
bounds:2,90,402,133
offsets:57,80,512,255
dl2_00016
bounds:904,649,41,40
offsets:366,173,512,255
dl2_00017
bounds:947,662,27,27
offsets:418,107,512,255
dl_00002
bounds:198,23,179,65
offsets:30,10,256,256
dl_00003
bounds:2,2,194,86
offsets:29,18,256,256
dl_00004
bounds:528,33,202,83
offsets:24,28,256,256
dl_00006
bounds:764,135,204,138
offsets:22,34,256,256
dl_00008
bounds:778,285,200,145
offsets:24,41,256,256
dl_00010
bounds:700,641,202,172
offsets:24,44,256,256
dl_00011
bounds:489,624,209,189
offsets:26,50,256,256
dl_00013
bounds:569,275,207,155
offsets:27,96,256,256
dl_00015
bounds:569,118,193,155
offsets:29,97,256,256
line_green
bounds:198,2,114,19
offsets:2,0,118,19
line_green2
bounds:406,8,120,120
line_red
bounds:528,12,114,19
offsets:2,0,118,19
line_red2
bounds:764,13,120,120
nengliang02
bounds:947,636,24,24
offsets:1,1,26,26
