fuhao.png
size:52,113
filter:Linear,Linear
pma:true
gantan
bounds:34,2,16,50
gantan1
bounds:2,96,14,15
shenglvehao
bounds:18,96,14,15
wenhao
bounds:34,96,14,15
wenhao1
bounds:2,9,30,43
xin
bounds:2,54,44,40
