%YAML 1.1
%TAG !u! tag:unity3d.com,2011:
--- !u!1045 &1
EditorBuildSettings:
  m_ObjectHideFlags: 0
  serializedVersion: 2
  m_Scenes:
  - enabled: 1
    path: Assets/Scenes/New Folder/Start.unity
    guid: 90b520398e5c7ae4a947b129783b5886
  - enabled: 1
    path: Assets/Scenes/GameStart.unity
    guid: 0fdabff7f7c209041856a940c86a1dd0
  m_configObjects: {}
